{"packages":{"linux-x64":[{"name":"abc-interpreter"
                          ,"version":"1.0.0"}
                         ,{"name":"argenv"
                          ,"version":"1.0.1"}
                         ,{"name":"base"
                          ,"version":"1.0.0"}
                         ,{"name":"base-clm"
                          ,"version":"1.5.0"}
                         ,{"name":"base-code-generator"
                          ,"version":"1.0.0"}
                         ,{"name":"base-compiler"
                          ,"version":"2.0.1"}
                         ,{"name":"base-compiler-itasks"
                          ,"version":"1.0.0"}
                         ,{"name":"base-rts"
                          ,"version":"1.1.0"}
                         ,{"name":"base-stdenv"
                          ,"version":"1.0.0"}
                         ,{"name":"clean-platform"
                          ,"version":"0.3.24"}
                         ,{"name":"gast"
                          ,"version":"0.2.3"}
                         ,{"name":"gentype"
                          ,"version":"1.1.0"}
                         ,{"name":"graph-copy"
                          ,"version":"2.0.2"}
                         ,{"name":"itasks"
                          ,"version":"0.2.12"}
                         ,{"name":"itasks-mqttclient"
                          ,"version":"1.0.2"}
                         ,{"name":"itasks-serial"
                          ,"version":"0.1.0"}
                         ,{"name":"lib-compiler"
                          ,"version":"3.0.2"}
                         ,{"name":"mtask-client-desktop"
                          ,"version":"0.1.2"}
                         ,{"name":"mtask-server"
                          ,"version":"0.1.3"}
                         ,{"name":"serial"
                          ,"version":"0.1.2"}
                         ,{"name":"tcpip"
                          ,"version":"2.0.1"}]}}
